Yuji_Hayashi_R
…
select(df, classe)

## # A tibble: 19,622 x 1
##    classe
##    <chr> 
##  1 A     
##  2 A     
##  3 A     
##  4 A     
##  5 A     
##  6 A     
##  7 A     
##  8 A     
##  9 A     
## 10 A     
## # ... with 19,612 more rows
…
